…
head(fetch_mayoral())
#> # A tibble: 6 × 2
#>   english_devolved_area_code english_devolved_area_name     
#>   <chr>                      <chr>                          
#> 1 E61000001                  Greater London Authority       
#> 2 E47000009                  West of England                
#> 3 E47000008                  Cambridgeshire and Peterborough
#> 4 E47000013                  East Midlands                  
#> 5 E47000017                  Greater Lincolnshire           
#> 6 E47000007                  West Midlands                  

fetch_lads(2024, "Wales")
#> # A tibble: 22 × 2
#>    lad_code  lad_name         
#>    <chr>     <chr>            
#>  1 W06000018 Caerphilly       
#>  2 W06000023 Powys            
#>  3 W06000008 Ceredigion       
#>  4 W06000016 Rhondda Cynon Taf
#>  5 W06000012 Neath Port Talbot
#>  6 W06000002 Gwynedd          
#>  7 W06000003 Conwy            
#>  8 W06000010 Carmarthenshire  
#>  9 W06000013 Bridgend         
#> 10 W06000020 Torfaen          
#> # ℹ 12 more rows
…
